// Jest Snapshot v1, https://goo.gl/fbAQLP

exports[`If cityId, show the weather 1`] = `
<div
  className="weather-report"
>
  <div
    className="app__welcome"
  >
    Welcome, please choose a city 
    
  </div>
</div>
`;

exports[`If no cityId, show the welcome message 1`] = `
<div
  className="weather-report"
>
  <div
    className="app__welcome"
  >
    Welcome, please choose a city 
    
  </div>
</div>
`;
