[
  {
    "id": 5056033,
    "name": "London",
    "country": "US",
    "coord": {
      "lon": -95.234978,
      "lat": 40.445
    }
  },
  {
    "id": 2964574,
    "name": "Dublin",
    "country": "IE",
    "coord": {
      "lon": -6.26719,
      "lat": 53.34399
    }
  },
  {
    "id": 2650225,
    "name": "Edinburgh",
    "country": "GB",
    "coord": {
      "lon": -3.19648,
      "lat": 55.952061
    }
  },
  {
    "id": 5128638,
    "name": "New York",
    "country": "US",
    "coord": {
      "lon": -75.499901,
      "lat": 43.000351
    }
  },
  {
    "id": 4463523,
    "name": "Denver",
    "country": "US",
    "coord": {
      "lon": -81.0298,
      "lat": 35.53125
    }
  },
  {
    "id": 1277333,
    "name": "Bangalore",
    "country": "IN",
    "coord": {
      "lon": 77.603287,
      "lat": 12.97623
    }
  }
]
